<?xml version="1.0" encoding="UTF-8"?>
<svg width="16px" height="20px" viewBox="0 0 16 20" version="1.1" xmlns="http://www.w3.org/2000/svg" xmlns:xlink="http://www.w3.org/1999/xlink">
    <!-- Generator: sketchtool 47.1 (45422) - http://www.bohemiancoding.com/sketch -->
    <title>0C49FE3A-74C8-4012-8F0A-F6908049CBA0</title>
    <desc>Created with sketchtool.</desc>
    <defs></defs>
    <g id="Page-1" stroke="none" stroke-width="1" fill="none" fill-rule="evenodd">
        <g id="test" transform="translate(-295.000000, -2151.000000)" fill="#D3D2CA">
            <g id="Group-6" transform="translate(190.000000, 1829.000000)">
                <g id="pause" transform="translate(105.000000, 322.000000)">
                    <rect id="Rectangle-3" x="0" y="0" width="6" height="20" rx="3"></rect>
                    <rect id="Rectangle-3-Copy" x="10" y="0" width="6" height="20" rx="3"></rect>
                </g>
            </g>
        </g>
    </g>
</svg>