<?xml version="1.0" encoding="UTF-8"?>
<svg width="32px" height="37px" viewBox="0 0 32 37" version="1.1" xmlns="http://www.w3.org/2000/svg" xmlns:xlink="http://www.w3.org/1999/xlink">
    <!-- Generator: sketchtool 48 (47235) - http://www.bohemiancoding.com/sketch -->
    <title>56A3AF83-994B-47FD-A839-19497E1FCDA2</title>
    <desc>Created with sketchtool.</desc>
    <defs></defs>
    <g id="test" stroke="none" stroke-width="1" fill="none" fill-rule="evenodd" transform="translate(-235.000000, -1522.000000)">
        <g id="Group-4" transform="translate(190.000000, 959.000000)" fill="#000000">
            <g id="headphone" transform="translate(45.000000, 563.000000)">
                <path d="M21.96875,0.809375 L21.96875,8.55625 C24.05,9.48125 25.4375,11.446875 25.4375,13.875 C25.4375,17.1125 22.89375,19.65625 19.65625,19.65625 C16.41875,19.65625 13.875,17.1125 13.875,13.875 C13.875,11.5625 15.2625,9.48125 17.34375,8.55625 L17.34375,0 C9.7125,0 3.46875,6.24375 3.46875,13.875 L0.115625,21.50625 C0,21.621875 0,21.7375 0,21.96875 C0,22.6625 0.4625,23.125 1.15625,23.125 L3.46875,23.125 L3.46875,26.59375 C3.46875,29.8312488 6.0125,32.375 9.25,32.375 C9.596875,32.375 10.059375,32.375 10.40625,32.259375 L10.40625,37 L25.4375,37 L25.4375,25.090625 C28.90625,22.546875 31.21875,18.5 31.21875,13.875 C31.21875,7.8625 27.403125,2.659375 21.96875,0.809375 Z M8.671875,16.1875 C7.746875,16.1875 6.9375,15.378125 6.9375,14.453125 C6.9375,13.528125 7.746875,12.71875 8.671875,12.71875 C9.596875,12.71875 10.40625,13.528125 10.40625,14.453125 C10.40625,15.378125 9.596875,16.1875 8.671875,16.1875 Z" id="Fill-1"></path>
                <path d="M23.125,13.875 C23.125,15.7907328 21.5719828,17.34375 19.65625,17.34375 C17.7405172,17.34375 16.1875,15.7907328 16.1875,13.875 C16.1875,11.9592672 17.7405172,10.40625 19.65625,10.40625 C21.5719828,10.40625 23.125,11.9592672 23.125,13.875 Z" id="Fill-3"></path>
            </g>
        </g>
    </g>
</svg>